{
	"main_script": "texture_cube.js",
	"icon": "cube.webp",
	"width": 400,
	"height": 300,
	"animation": true,
	"load": {
	},
	"dependencies": [
		"scripts/glMatrix-0.9.5.min.js"
	],
	"title": "Textured Cube",
	"version": "1.0.0",
	"description": "A WebGL demonstation of animation and texturing",
	"keywords": [ "webgl", "animation", "3d" ],
	"author": "Thomas Marrinan <thomas.j.marrinan@gmail.com>",
	"license": "SAGE2-Software-License"
}
