{
	"main_script": "threejs_shader.js",
	"icon": "threejs_shader.webp",
	"width": 800,
	"height": 600,
	"animation": true,
	"resize": "free",
	"dependencies": [
		"scripts/three.min.js"
	],
	"title": "Three.js shader demo",
	"version": "1.0.0",
	"description": "A Three.js shader demonstration (adapted from http://threejs.org/)",
	"keywords": [ "three", "3d", "animation" ],
	"author": "Luc Renambot <renambot@gmail.com>",
	"license": "SAGE2-Software-License"
}
